-0.731116		0
1.27692		1.9243e-007
-1.24276		-5.31197e-007
1.24018		-3.52052e-008
-1.1915		-1.47144e-008
1.15717		4.14023e-007
-1.1623		6.01646e-008
1.12773		-4.69166e-007
-1.0859		7.60674e-008
1.0907		-2.02287e-007
-1.07682		2.85876e-008
1.03148		2.10044e-007
-1.02371		-2.21431e-007
1.02929		1.85862e-008
-0.994475		2.44135e-007
0.967005		-8.99129e-008
-0.977042		-8.56746e-008
0.966829		1.01666e-007
-0.929662		-2.38549e-007
0.922767		4.4583e-008
-0.933362		1.18063e-007
0.910833		1.40809e-007
-0.881931		-1.49854e-007
0.887723		-1.69991e-007
-0.892404		-1.3035e-007
0.86484		1.53246e-007
-0.845824		3.20725e-010
0.857286		1.80972e-007
-0.856186		1.66333e-007
0.828279		4.33576e-008
-0.816977		-1.16389e-008
0.830377		-3.07942e-007
-0.825669		-3.42453e-008
0.799315		8.26076e-008
-0.79296		1.65618e-007
0.806905		-2.17219e-007
-0.800781		-1.04814e-007
0.776309		3.18037e-007
-0.772587		-1.34945e-008
0.786809		1.17872e-007
-0.78098		1.71442e-007
0.758135		-2.8022e-008
-0.755304		1.06792e-007
0.769876		2.20021e-007
-0.765617		-1.09949e-007
0.744106		-4.69204e-008
-0.740861		-1.04833e-007
0.7558		5.76395e-008
-0.754066		8.82676e-008
0.733814		-9.92025e-009
-0.729182		-8.48229e-008
0.744274		1.23237e-008
-0.745766		-3.99135e-008
0.727005		3.7433e-008
-0.720297		9.89711e-008
0.735052		-6.27802e-008
-0.740231		-9.244e-008
0.72352		-1.60151e-007
-0.714316		3.58587e-008
0.727908		-1.60461e-007
-0.737057		-5.47027e-009
0.723606		1.94073e-007
-0.711717		-6.3138e-008
0.721256		-8.35108e-008
-0.731116		0
0.721256		1.72637e-008
-0.711717		1.43921e-007
0.723606		-2.7044e-007
-0.737057		8.85335e-008
0.727908		8.65413e-008
-0.714316		6.14094e-009
0.72352		7.40883e-008
-0.740231		1.18449e-007
0.735052		-2.90304e-008
-0.720297		-4.43422e-008
0.727005		-9.00155e-008
-0.745766		8.81519e-008
0.744274		-8.17967e-008
-0.729183		1.36821e-007
0.733815		-4.99141e-008
-0.754066		-7.51516e-008
0.7558		-1.37277e-007
-0.740861		1.44941e-007
0.744106		-1.39172e-008
-0.765617		1.46116e-007
0.769877		-2.7952e-007
-0.755304		-7.75086e-008
0.758135		-4.69801e-009
-0.78098		-1.57851e-007
0.786809		-1.71131e-007
-0.772587		4.74627e-008
0.776309		-3.54367e-007
-0.800781		1.18019e-007
0.806905		1.85351e-007
-0.79296		-1.40704e-007
0.799316		-1.15164e-007
-0.825669		3.42453e-008
0.830377		2.7685e-007
-0.816977		4.3846e-008
0.828279		-4.67971e-008
-0.856186		-1.58669e-007
0.857287		-1.86792e-007
-0.845824		-1.50299e-009
0.86484		-1.46735e-007
-0.892404		1.25744e-007
0.887723		1.70591e-007
-0.881931		1.47626e-007
0.910833		-1.06182e-007
-0.933362		-1.43876e-007
0.922767		-1.05548e-008
-0.929662		2.12734e-007
0.966829		-3.28183e-008
-0.977042		7.25586e-008
0.967005		1.24443e-007
-0.994475		-2.96216e-007
1.02929		6.25135e-008
-1.02371		1.69726e-007
1.03148		-1.55748e-007
-1.07682		-1.04271e-007
1.0907		3.27348e-007
-1.0859		-1.11062e-007
1.12773		5.94848e-007
-1.1623		-1.39233e-007
1.15717		-2.84936e-007
-1.1915		-9.61046e-008
1.24018		1.70524e-007
-1.24276		3.77364e-007
1.27692		-1.87625e-008
